../Core/Src/fs/path/dev.c:31:15:null_data_getter	24	static
../Core/Src/fs/path/dev.c:42:13:null_data_setter	24	static
../Core/Src/fs/path/dev.c:52:15:random_data_getter	24	static
../Core/Src/fs/path/dev.c:95:15:ram_data_getter	24	static
../Core/Src/fs/path/dev.c:104:13:ram_data_setter	24	static
../Core/Src/fs/path/dev.c:112:15:eeprom_data_getter	24	static
../Core/Src/fs/path/dev.c:121:13:eeprom_data_setter	24	static
../Core/Src/fs/path/dev.c:129:15:rom_data_getter	24	static
../Core/Src/fs/path/dev.c:157:6:dev_mount	32	static
