../Core/Src/main.c:376:12:write_char	16	static
../Core/Src/main.c:439:6:start_ush_task	8	static
../Core/Src/main.c:461:6:start_cmd_stack	8	static
../Core/Src/main.c:385:12:read_char	16	static
../Core/Src/main.c:81:5:_write	8	static
../Core/Src/main.c:215:6:SystemClock_Config	96	static,ignoring_inline_asm
../Core/Src/main.c:363:6:s_print	0	static
../Core/Src/main.c:367:6:HAL_UART_RxCpltCallback	0	static
../Core/Src/main.c:411:6:shell_init	8	static
../Core/Src/main.c:130:5:main	80	static,ignoring_inline_asm
../Core/Src/main.c:419:7:shell_get_hostname	0	static
../Core/Src/main.c:424:6:shell_set_hostname	8	static
../Core/Src/main.c:498:6:HAL_TIM_PeriodElapsedCallback	0	static
../Core/Src/main.c:515:6:Error_Handler	0	static,ignoring_inline_asm
